Track the Seals
…
which give’s us the data ‘column’ names. Running the command

atnData <- tabledap(atnInfo, fields = c("commonName"), url = atnURL)
atnData

gives us the names of all the animals that are avaiable in the data set:

<ERDDAP tabledap> gtoppAT
   Path: [/home/stan/.cache/R/rerddap/8c470a421cf8d42a59fd20a943fc89dd.csv]
   Last updated: [2019-10-28 17:11:13]
   File size:    [0 mb]
# A tibble: 53 x 1
   commonName            
   <chr>                 
 1 Atlantic Sailfish     
 2 Basking Shark         
 3 Bigeye Tuna           
 4 Black Marlin          
 5 Black-footed Albatross
 6 Blue Marlin           
 7 Blue Shark            
 8 Blue Whale            
 9 California Sea Lion   
10 Common Thresher Shark 
# … with 43 more rows
…
